{
	"id": "33ff1a4c-3b60-4fd5-9ae1-0cf53bdd8325",
	"name": "Bitzen",
	"values": [
		{
			"key": "url",
			"value": "http://localhost:8000/",
			"enabled": true
		}
	],
	"_postman_variable_scope": "environment",
	"_postman_exported_at": "2020-07-17T01:35:27.154Z",
	"_postman_exported_using": "Postman/7.27.0"
}